…
― Hans Rosling, Factfulness (漢斯・羅斯林，《真確》)

[GapMinder Foundation](https://www.gapminder.org/tools/#$chart-type=bubbles) 是一個致力於「利用統計數字理解世界上各個國家社會、經濟、環境發展」的基金會，除了開發軟體視覺化呈現前述的統計數字以外，他們也將蒐集到的資料公開上網。

若你對他們做的事情有興趣，可以先看這一篇介紹文 [如何用 30 秒了解台灣發展與全球趨勢：用 GapMinder 培養正確世界觀](https://leemeng.tw/gapminder.html)。但跟文中所說不同的是，現在 GapMinder Foundation 已經有提供台灣的資料了！因此，底下我們將利用 R 語言，來探索這份資料。

1. data importing and renaming columns: 
請讀取請右方路徑的 csv 檔，路徑為 `data 資料夾 -> AS03 資料夾 -> gapminder_raw.tsv`，並取名為 `df_gapminder_raw`。這個檔案是 tsv 而非 csv，而且它的欄位名稱 (column names) 遺失了，請小心謹慎！將檔案讀進來之後，請依序更改 `df_gapminder_raw` 的欄位名稱成 country, continent, year, lifeExp(預期壽命), pop(人口數), gdpPercap(人均GDP)，括弧內是我的說明，請用英文命名欄位即可，最後印出改名後的`df_gapminder_raw`

```{r message=FALSE, warning=FALSE}
### your code

### your result should be
#> # A tibble: 1,704 x 6
#>    country     continent  year lifeExp      pop gdpPercap
#>    <chr>       <chr>     <dbl>   <dbl>    <dbl>     <dbl>
#>  1 Afghanistan Asia       1952    28.8  8425333      779.
#>  2 Afghanistan Asia       1957    30.3  9240934      821.
#>  3 Afghanistan Asia       1962    32.0 10267083      853.
#>  4 Afghanistan Asia       1967    34.0 11537966      836.
#>  5 Afghanistan Asia       1972    36.1 13079460      740.
#>  6 Afghanistan Asia       1977    38.4 14880372      786.
#>  7 Afghanistan Asia       1982    39.9 12881816      978.
#>  8 Afghanistan Asia       1987    40.8 13867957      852.
#>  9 Afghanistan Asia       1992    41.7 16317921      649.
#> 10 Afghanistan Asia       1997    41.8 22227415      635.
#> # … with 1,694 more rows
```
…
### your result should be
# 看你怎麼處理 missing value，結果可能會有不同
```

### data importing & data manipulation (ii) (50 分)

PTT 上面有好幾個和影集(drama)有關的子板(board)，下方提供 03/02 當天所抓取的相關資料，請載入這份資料後回答問題。

1. data importing: 請讀取請右方路徑的 csv 檔，路徑為 `data 資料夾 -> AS03 資料夾 -> df_main_clean.csv`，取名為 `df_main_clean`後印出

```{r message=FALSE, warning=FALSE}
### your code

### your result should be 
#> # A tibble: 1,457 x 10
#>    board  type   title   date       comments author  text      IP       link    
#>    <chr>  <chr>  <chr>   <date>        <dbl> <chr>   <chr>     <chr>    <chr>   
#>  1 Korea… [公告] Fw: [公… 2021-01-18       20 XDDDD5… "┌──┬│┌─… "※ 發信站:… https:/…
#>  2 Korea… [新聞] [新聞] 柳… 2021-01-18        5 jinyi … "演員柳惠英被提… "※ 發信站:… https:/…
#>  3 Korea… [閒聊] [閒聊]  … 2021-01-18      101 jay947… "花了幾個週末把… "※ 發信站:… https:/…
#>  4 Korea… [新聞] [新聞] 孫… 2021-01-18        9 jinyi … "據多名電視臺相… "※ 發信站:… https:/…
#>  5 Korea… [LIVE] [LIVE]… 2021-01-18      249 kawasa… "前輩，那支口紅… "※ 發信站:… https:/…
#>  6 Korea… [LIVE] [LIVE]… 2021-01-18      406 tcchen… "劇名:▁▁▁▁… "※ 發信站:… https:/…
#>  7 Korea… [LIVE] [LIVE]… 2021-01-18       80 diana8… "───────… "※ 發信站:… https:/…
#>  8 Korea… [心得] [心得] 惡… 2021-01-18       28 analyt… "最後一集到底來… "※ 發信站:… https:/…
#>  9 Korea… [求薦] [求薦] 想… 2021-01-18      214 greenb… "1.重刷doc… "※ 發信站:… https:/…
#> 10 Korea… <NA>   看完13集驅… 2021-01-19       35 patty6… "不知道各位大大… "※ 發信站:… https:/…
#> # … with 1,447 more rows, and 1 more variable: time <dttm>
```
…
3. filtering: 請找出韓劇版(KoreaDrama)中文章留言數介於 50 到 100 之間（包含）的文章，並印出 tibble/dataframe

```{r message=FALSE, warning=FALSE}
### your code

### your result should be 
#> # A tibble: 62 x 10
#>    board  type   title   date       comments author  text      IP       link    
#>    <chr>  <chr>  <chr>   <date>        <dbl> <chr>   <chr>     <chr>    <chr>   
#>  1 Korea… [LIVE] [LIVE]… 2021-01-18       80 diana8… "───────… "※ 發信站:… https:/…
#>  2 Korea… [心得] [心得] 看… 2021-01-20       51 Eva041… "天啊~這次真的… "※ 發信站:… https:/…
#>  3 Korea… [閒聊] [閒聊] R… 2021-01-20       51 xji6tp… "繼續用愛發電防… "※ 發信站:… https:/…
#>  4 Korea… [LIVE] [LIVE]… 2021-01-20       75 kawasa… "EP13預告\… "※ 發信站:… https:/…
#>  5 Korea… [心得] [心得] 晝… 2021-01-21       80 lyw318… "一般追劇，要嘛… "※ 發信站:… https:/…
#>  6 Korea… [心得] [心得] 推… 2021-01-21       81 ilovef… "晝與夜是一部怪… "※ 發信站:… https:/…
#>  7 Korea… [閒聊] [閒聊] J… 2021-01-22       62 rainin… "[這是碎碎念]… "※ 發信站:… https:/…
#>  8 Korea… [心得] [心得] 女… 2021-01-23       61 Kduran… "因為目前很喜歡… "※ 發信站:… https:/…
#>  9 Korea… [心得] [心得] 《… 2021-01-26       63 analyt… "看到新聞說有人… "※ 發信站:… https:/…
#> 10 Korea… [心得] [心得] 看… 2021-01-26       56 n25 (n… "細部情節帶給人… "※ 發信站:… https:/…
#> # … with 52 more rows, and 1 more variable: time <dttm>
```

4. mutating and counting: 請先增加一個每則文章月份的欄位，接著計算各版中各個月份各自有多少篇文章，最後印出板名、月份、文章數的 tibble/dataframe

```{r message=FALSE, warning=FALSE}
### your code

### your result should be 
#> # A tibble: 21 x 3
#>    board       month     n
#>    <chr>       <dbl> <int>
#>  1 China-Drama     1   135
#>  2 China-Drama     2   137
#>  3 China-Drama     3    24
#>  4 China-Drama     4     1
#>  5 China-Drama     8     1
#>  6 China-Drama    12    63
#>  7 EAseries        1   111
#>  8 EAseries        2   240
#>  9 EAseries        3    27
#> 10 EAseries        4     3
#> # … with 11 more rows
```
…
7. advanced - transforming variables and counting: 文章類型(type)非常多樣，譬如"[心得]", "[閒聊]" 等，請保留"[心得]"、"[閒聊]"、"[新聞]"、"[情報]"，並將"[LIVE]"與"[Live]"合併成"[LIVE]"，剩下其他種類或是 missing value 都改成"[其他]"，修改後再計算各板的文章類型**比例**(百分比)，最後按照每個版的名稱由 A 到 Z、比例由大到小排列，並印出板名、類型、類型文章數、類型文章數占比的 tibble/dataframe

提示：你可以查一下 `case_when()` 的用法，或是你想要用 `ifelse()` 或者 `if_else()` 都行

```{r message=FALSE, warning=FALSE}
### your code

### your result should be 
#> # A tibble: 23 x 4
#>    board       type       n    per
#>    <chr>       <chr>  <int>  <dbl>
#>  1 China-Drama [心得]   128 0.355 
#>  2 China-Drama [閒聊]   110 0.305 
#>  3 China-Drama [其他]    57 0.158 
#>  4 China-Drama [LIVE]    45 0.125 
#>  5 China-Drama [情報]    12 0.0332
#>  6 China-Drama [新聞]     9 0.0249
#>  7 EAseries    [新聞]   123 0.321 
#>  8 EAseries    [心得]   109 0.285 
#>  9 EAseries    [其他]    91 0.238 
#> 10 EAseries    [閒聊]    59 0.154 
#> # … with 13 more rows
```
