…
滿分共 100 分。

### A. importing data and data manipulation - csv (50 分) 

本題目利用內政部統計處的[社會經濟資料服務平台](https://segis.moi.gov.tw/STAT/Web/Portal/STAT_PortalHome.aspx)所提供的資料，該平台有大量台灣的地理圖資與人口變數，之後找題目可以參考。我們使用的是 109 年第 4 季各縣市的結婚統計。

1. data importing：請讀取請右方路徑的 csv 檔，路徑為 `data 資料夾 -> Lab04 資料夾 -> 109Q4_county_marriage.csv`，並取名為 `df_109Q4_county_marriage`。檔案讀進來後可能有亂碼，請任選課堂提到的亂碼處理方式（讀取前修改編碼、讀取設定參數、讀進後修改編碼），將檔案以正確編碼印出。若你是讀取前修改編碼，請用文字說明步驟，若你是設定參數或修改編碼，請在程式碼中用註解(`#`)說明你在做什麼！

```{r message=FALSE,warning=FALSE}
### your code


### your result should be 
#> # A tibble: 23 x 7
#>    COUNTY_ID COUNTY  MARRY_CP_CNT MARRY_CNT  MARRY_M_CNT  MARRY_F_CNT  INFO_TIME
#>    <chr>     <chr>   <chr>        <chr>      <chr>        <chr>        <chr>    
#>  1 縣市代碼  縣市名稱… 結婚對數     結婚登記中外(含大… 結婚登記中外(含大陸港… 結婚登記中外(含大陸港… 資料時間 
#>  2 65000     新北市  6529         580        189          391          109Y4S   
#>  3 63000     臺北市  3856         422        207          215          109Y4S   
#>  4 68000     桃園市  3986         370        107          263          109Y4S   
#>  5 66000     臺中市  4837         381        130          251          109Y4S   
#>  6 67000     臺南市  2706         185        57           128          109Y4S   
#>  7 64000     高雄市  4139         343        112          231          109Y4S   
#>  8 10002     宜蘭縣  725          62         11           51           109Y4S   
#>  9 10004     新竹縣  1003         71         13           58           109Y4S   
#> 10 10005     苗栗縣  859          75         19           56           109Y4S   
#> # … with 13 more rows
```

2. `slice()` and `mutate()`：這份資料有七個 column，而且第一列是中文欄位名稱。承上題，請先修改編碼，又因為後續計算需要將幾個欄位轉成數值，所以請將第一列踢掉，接著將`結婚對數`, `結婚登記中外聯姻人數`, `結婚登記中外聯姻男性人數`, `結婚登記中外聯姻女性人數` 從 `character` 變成 `integer`，最後將結果儲存在 `df_109Q4_county_marriage_clean`，並印出 `df_109Q4_county_marriage_clean`（欄位名稱是英文的沒錯）

```{r message=FALSE,warning=FALSE}
### your code

### your result should be 
#> # A tibble: 22 x 7
#>    COUNTY_ID COUNTY MARRY_CP_CNT MARRY_CNT MARRY_M_CNT MARRY_F_CNT INFO_TIME
#>    <chr>     <chr>         <int>     <int>       <int>       <int> <chr>    
#>  1 65000     新北市         6529       580         189         391 109Y4S   
#>  2 63000     臺北市         3856       422         207         215 109Y4S   
#>  3 68000     桃園市         3986       370         107         263 109Y4S   
#>  4 66000     臺中市         4837       381         130         251 109Y4S   
#>  5 67000     臺南市         2706       185          57         128 109Y4S   
#>  6 64000     高雄市         4139       343         112         231 109Y4S   
#>  7 10002     宜蘭縣          725        62          11          51 109Y4S   
#>  8 10004     新竹縣         1003        71          13          58 109Y4S   
#>  9 10005     苗栗縣          859        75          19          56 109Y4S   
#> 10 10007     彰化縣         1882       161          32         129 109Y4S   
#> # … with 12 more rows
```
…
### B. importing data and data manipulation - excel (50 分) 

本題目利用[台大碩士班考試入學報名人數資料](http://www.aca.ntu.edu.tw/gra/access/acc_mase/aboard-b07.asp?id=9)，原始檔案有 PDF 與 Excel，這邊選擇 Excel 檔案，讓你練習讀取 Excel 檔案以及資料操作。

(1) data importing：請讀取右方路徑的 Excel 檔，路徑為 `data 資料夾 -> Lab04 資料夾 -> 台大_101學年度碩士班考試招生錄取情況一覽表.xls`，並取名為 `df_ntu_exam`。另外提醒一下，這個檔案是 .xls，也就是舊版的 excel 檔案，不是現在較常見的 .xlsx 喔！

```{r message=FALSE,warning=FALSE}
### your code

### your result should be 
#> # A tibble: 224 x 20
#>    口試    簡章代碼 口試比例 系所別 組別  報考人數 ...7  招生名額 ...9  錄取人數
#>    <chr>   <chr>       <dbl> <chr>  <chr> <chr>    <chr> <chr>    <chr> <chr>   
#>  1  <NA>   <NA>        NA    <NA>   <NA>  一般     在職  一般     在職  一般    
#>  2  <NA>   <NA>        NA    總計   <NA>  18474    <NA>  1935     <NA>  1908    
#>  3  <NA>   <NA>        NA    合計(全部… <NA>  18372    102   1860     75    1876    
#>  4  <NA>   <NA>        NA    小計(無口… <NA>  11309    26    1251     33    1258    
#>  5  <NA>   <NA>        NA    小計(有口… <NA>  7063     76    609      42    618     
#>  6  <NA>   101         NA    中國文學系… <NA>  175      <NA>  17       <NA>  17      
#>  7 "●\u00… 102          0.25 外國語文學… <NA>  73       <NA>  10       <NA>  10      
#>  8  <NA>   103         NA    歷史學系… <NA>  127      <NA>  18       <NA>  20      
#>  9  <NA>   104         NA    哲學系 甲組(主… 6        <NA>  3        <NA>  2       
#> 10  <NA>   105         NA    哲學系 乙組(主… 23       <NA>  3        <NA>  3       
#> # … with 214 more rows, and 10 more variables: ...11 <chr>, 錄取情況 <chr>,
#> #   ...13 <chr>, 錄取最低分數 <chr>, ...15 <chr>, 錄取率 <chr>, ...17 <chr>,
#> #   備取人數 <chr>, ...19 <chr>, 本校最低門檻 <dbl>
```

(2) `select()`：台大考試入學的碩士生分為一般組與在職組，請幫我拿掉`在職`相關的欄位。另外，也請幫我拿掉`口試`相關的欄位，完成後印出 tibble/dataframe

提示：你可以先在 Excel 當中打開原始檔案看長相

```{r message=FALSE,warning=FALSE}
### your code

### your result should be 
#> # A tibble: 224 x 11
#>    簡章代碼 系所別 組別  報考人數 招生名額 錄取人數 錄取情況 錄取最低分數 錄取率
#>    <chr>    <chr>  <chr> <chr>    <chr>    <chr>    <chr>    <chr>        <chr> 
#>  1 <NA>     <NA>   <NA>  一般     一般     一般     一般     一般         一般  
#>  2 <NA>     總計   <NA>  18474    1935     1908     缺額29   <NA>         0.103…
#>  3 <NA>     合計(全部… <NA>  18372    1860     1876     增額14   <NA>         0.102…
#>  4 <NA>     小計(無口… <NA>  11309    1251     1258     增額7    <NA>         0.111…
#>  5 <NA>     小計(有口… <NA>  7063     609      618      增額7    <NA>         0.087…
#>  6 101      中國文學系… <NA>  175      17       17       <NA>     230          0.097…
#>  7 102      外國語文學… <NA>  73       10       10       <NA>     221.66       0.136…
#>  8 103      歷史學系… <NA>  127      18       20       同分2    285          0.157…
#>  9 104      哲學系 甲組(主… 6        3        2        缺額1    202          0.333…
#> 10 105      哲學系 乙組(主… 23       3        3        <NA>     201          0.130…
#> # … with 214 more rows, and 2 more variables: 備取人數 <chr>,
#> #   本校最低門檻 <dbl>
```

(3) `slice()` or `filter()` or `[,]`：觀察原始檔案可以發現，資料中前幾列包含總計、合計、小計，因為我只想看各系所的招生情況，所以請先依照上題所說，先拿掉`在職`與`口試`相關的欄位，接著幫我抓取**從中國文學系**開始的資料，完成後將結果儲存在 `df_ntu_exam_clean`，最後將 `df_ntu_exam_clean` 印出

```{r message=FALSE,warning=FALSE}
### your code

### your result should be 
#> # A tibble: 219 x 11
#>    簡章代碼 系所別 組別  報考人數 招生名額 錄取人數 錄取情況 錄取最低分數 錄取率
#>    <chr>    <chr>  <chr> <chr>    <chr>    <chr>    <chr>    <chr>        <chr> 
#>  1 101      中國文學系… <NA>  175      17       17       <NA>     230          0.097…
#>  2 102      外國語文學… <NA>  73       10       10       <NA>     221.66       0.136…
#>  3 103      歷史學系… <NA>  127      18       20       同分2    285          0.157…
#>  4 104      哲學系 甲組(主… 6        3        2        缺額1    202          0.333…
#>  5 105      哲學系 乙組(主… 23       3        3        <NA>     201          0.130…
#>  6 106      人類學系… <NA>  29       8        8        <NA>     334.6000000… 0.275…
#>  7 107      圖書資訊學… <NA>  42       9        9        <NA>     316          0.214…
#>  8 108      日本語文學… <NA>  54       12       12       <NA>     263.9700000… 0.222…
#>  9 109      戲劇學系… 甲組(主… 30       9        7        缺額2    182          0.233…
#> 10 110      戲劇學系… 乙組(劇… 14       3        1        缺額2    233.66       0.071…
#> # … with 209 more rows, and 2 more variables: 備取人數 <chr>,
#> #   本校最低門檻 <dbl>
```
…
